[{
    "title": "Discovery",
    "items": [{
        "checked": false,
        "title": "Designate the people who will be included on the strategy development team."
    },
    {
        "checked": false,
        "title": "Select the process that the team will follow to develop the strategic plan."
    },
    {
        "checked": false,
        "title": "Create a timeline and deliverables for the strategy process."
    },
    {
        "checked": false,
        "title": "Collect intelligence on the market, customers, competitors and the company."
    },
    {
        "checked": false,
        "title": "Have the strategy team members each complete a Strategy Survey."
    },
    {
        "checked": false,
        "title": "Provide the strategy team members with reading materials to educate them on the key concepts of strategy."
    }]
},
{
    "title": "Strategic Thinking",
    "items": [{
        "checked": false,
        "title": "Schedule the face-to-face strategic thinking session (1-2 days)."
    },
    {
        "checked": false,
        "title": "Develop a session flow for the workshop."
    },
    {
        "checked": false,
        "title": "Identify the strategic thinking models to use during the workshop, selecting at least two for each of the following areas: market, customers, competitors and company."
    },
    {
        "checked": false,
        "title": "Prepare and print participant workbooks."
    },
    {
        "checked": false,
        "title": "Select a third-party facilitator to lead the workshop."
    },
    {
        "checked": false,
        "title": "Conduct the 1-2 day strategic thinking session."
    },
    {
        "checked": false,
        "title": "Post-session, reproduce the strategic thinking models in electronic format and distribute to the strategy team."
    }]
},
{
    "title": "Strategic Planning",
    "items": [{
        "checked": false,
        "title": "Identify the strategic plan format deliverable (i.e., StrategyPrint)."
    },
    {
        "checked": false,
        "title": "Transform the strategic thinking insights into the content for the strategic plan."
    },
    {
        "checked": false,
        "title": "Develop the strategic plan using the input and insights generated during the strategic thinking phase."
    },
    {
        "checked": false,
        "title": "Review the final strategic plan with the strategy team and potentially board of directors."
    }]
},
{
    "title": "Strategy Rollout",
    "items": [{
        "checked": false,
        "title": "Create an implementation plan that provides the direction and details of how the strategic plan will be executed."
    },
    {
        "checked": false,
        "title": "Purpose—What purposes is the plan designed to achieve? Are they clearly articulated in the form of vision, goals, and objectives?"
    },
    {
        "checked": false,
        "title": "Resources—What are the resources (tangible, intangible, and human) that will be allocated to achieve the plan’s purposes?"
    },
    {
        "checked": false,
        "title": "Accountability—Which individuals and functional groups are responsible for achieving each of the goals?"
    },
    {
        "checked": false,
        "title": "Time Frame—What are the time parameters associated with the elements of the plan?"
    },
    {
        "checked": false,
        "title": "Budget—How much will each item identified in the plan cost to implement?"
    },
    {
        "checked": false,
        "title": "Alignment—Are all of the functional groups (marketing, sales, project management, IT, etc.) aligned to achieve the same goals, or will groups be pulling in different directions?"
    },
    {
        "checked": false,
        "title": "Metrics—Are clear, consistent, and realistic metrics in place to monitor progress?"
    },
    {
        "checked": false,
        "title": "Project Template—Is a singular project template in place to ensure that all projects consuming resources are meeting the agreed-upon strategic criteria?"
    },
    {
        "checked": false,
        "title": "Communication Tools—Have the appropriate communication vehicles been identified to convey key information of the strategic plan to all employees?"
    }]
},
{
    "title": "Strategy Tune-up",
    "items": [{
        "checked": false,
        "title": "Schedule monthly or quarterly strategy tune-up sessions in the calendar and decide on length of sessions (i.e., 2 hours, 4 hours, etc.)."
    },
    {
        "checked": false,
        "title": "Select the strategic thinking tools that will be used during the tune-up sessions."
    },
    {
        "checked": false,
        "title": "Strategy team members should update their strategic plans on a weekly basis."
    },
    {
        "checked": false,
        "title": "Two weeks prior to the tune-up session, distribute an article or book chapter on strategy to refresh on key concepts and introduce new ones."
    },
    {
        "checked": false,
        "title": "Invite high-potentials to the tune-up sessions to begin building their knowledge of the strategy development process."
    },
    {
        "checked": false,
        "title": "Monitor the process and make the appropriate modifications."
    }]
}]